C:\Users\tamara.lopezusam\eclipse-workspace\agenda\src\com\agenda\ctrl\Jasper.java
C:\Users\tamara.lopezusam\eclipse-workspace\agenda\src\com\agenda\impl\FasesImpl.java
C:\Users\tamara.lopezusam\eclipse-workspace\agenda\src\com\agenda\ctrl\UsuariosDao.java
C:\Users\tamara.lopezusam\eclipse-workspace\agenda\src\com\agenda\ctrl\ActesDao.java
C:\Users\tamara.lopezusam\eclipse-workspace\agenda\src\com\agenda\util\Dao.java
C:\Users\tamara.lopezusam\eclipse-workspace\agenda\src\com\agenda\confs\AppContextConfig.java
C:\Users\tamara.lopezusam\eclipse-workspace\agenda\src\com\agenda\model\Personas.java
C:\Users\tamara.lopezusam\eclipse-workspace\agenda\src\com\agenda\impl\UsuariosImpl.java
C:\Users\tamara.lopezusam\eclipse-workspace\agenda\src\com\agenda\util\AbstractFacade.java
C:\Users\tamara.lopezusam\eclipse-workspace\agenda\src\com\agenda\util\Conexion.java
C:\Users\tamara.lopezusam\eclipse-workspace\agenda\src\com\agenda\impl\EstadosImpl.java
C:\Users\tamara.lopezusam\eclipse-workspace\agenda\src\com\agenda\model\Tipousuario.java
C:\Users\tamara.lopezusam\eclipse-workspace\agenda\src\com\agenda\impl\FasesDetImpl.java
C:\Users\tamara.lopezusam\eclipse-workspace\agenda\src\com\agenda\impl\FechasEspecialesImpl.java
C:\Users\tamara.lopezusam\eclipse-workspace\agenda\src\com\agenda\model\Estados.java
C:\Users\tamara.lopezusam\eclipse-workspace\agenda\src\com\agenda\model\FasesDet.java
C:\Users\tamara.lopezusam\eclipse-workspace\agenda\src\com\agenda\impl\ActividadesImpl.java
C:\Users\tamara.lopezusam\eclipse-workspace\agenda\src\com\agenda\model\Fechasespeciales.java
C:\Users\tamara.lopezusam\eclipse-workspace\agenda\src\com\agenda\model\Usuarios.java
C:\Users\tamara.lopezusam\eclipse-workspace\agenda\src\com\agenda\impl\TipoUsuarioImpl.java
C:\Users\tamara.lopezusam\eclipse-workspace\agenda\src\com\agenda\impl\PersonasImpl.java
C:\Users\tamara.lopezusam\eclipse-workspace\agenda\src\com\agenda\confs\SpringWebAppIni.java
C:\Users\tamara.lopezusam\eclipse-workspace\agenda\src\com\agenda\ctrl\FasesDao.java
C:\Users\tamara.lopezusam\eclipse-workspace\agenda\src\com\agenda\model\Actividades.java
C:\Users\tamara.lopezusam\eclipse-workspace\agenda\src\com\agenda\model\Fases.java
